#For illustration purpose only.  Modify to suit your need. 
#this one has all residues, ters as TERN and TERC.
#STND
#Based on OPLS as in UHBD.  Originally from Cindy Gibas
#Nucleos acid added by Jie Liang, with other minor modification
#
#ASP values are given in Kcal/Mol
#
resi atom   chrg   epsi   sigm   radi    ASP end  
ALA  N    -0.400  0.170  3.250  1.625  0.008
ALA  H     0.250  0.000  0.000  1.200  0.000
ALA  CA    0.100  0.080  3.800  1.900  0.035
ALA  CB    0.000  0.160  3.910  1.955  0.035
ALA  C     0.600  0.105  3.750  1.875  0.035
ALA  O    -0.550  0.210  2.960  1.480  0.008
ALA  OXT  -0.550  0.210  2.960  1.480 -0.005
ARG  N    -0.400  0.170  3.250  1.625  0.008
ARG  H     0.250  0.000  0.000  1.200  0.000
ARG  CA    0.100  0.800  3.800  1.900  0.035
ARG  CB    0.000  0.118  3.905  1.952  0.035
ARG  CG    0.000  0.118  3.905  1.952  0.035
ARG  CD    0.100  0.118  3.905  1.952  0.035
ARG  NE   -0.400  0.170  3.250  1.625  0.008
ARG  HE    0.300  0.000  0.000  1.200  0.000
ARG  CZ    0.500  0.050  2.250  1.125  0.035
ARG  NH1  -0.450  0.170  3.250  1.625 -0.046
ARG  HH11  0.350  0.000  0.000  1.200  0.000
ARG  HH12  0.350  0.000  0.000  1.200  0.000
ARG  NH2  -0.450  0.170  3.250  1.625 -0.046
ARG  HH21  0.350  0.000  0.000  1.200  0.000
ARG  HH22  0.350  0.000  0.000  1.200  0.000
ARG  C     0.600  0.105  3.750  1.875  0.035
ARG  O    -0.550  0.210  2.960  1.480  0.008
ARG  OXT  -0.550  0.210  2.960  1.480 -0.005 #as above.  JL 5/28/96
ASN  N    -0.400  0.170  3.250  1.625  0.008
ASN  H     0.250  0.000  0.000  1.200  0.000
ASN  CA    0.100  0.080  3.800  1.900  0.035
ASN  CB    0.000  0.118  3.905  1.952  0.035
ASN  CG    0.550  0.105  3.750  1.875  0.035
ASN  OD1  -0.550  0.210  2.960  1.480 -0.005
ASN  ND2  -0.600  0.170  3.250  1.625  0.008
ASN  HD21  0.300  0.000  0.000  1.200  0.000
ASN  HD22  0.300  0.000  0.000  1.200  0.000
ASN  C     0.600  0.105  3.750  1.875  0.035
ASN  O    -0.550  0.210  2.960  1.480  0.008
ASP  N    -0.400  0.170  3.250  1.625  0.008
ASP  H     0.250  0.000  0.000  1.200  0.000
ASP  CA    0.100  0.800  3.800  1.900  0.035
ASP  CB    0.000  0.118  3.905  1.952  0.035
ASP  CG    0.140  0.105  3.750  1.675  0.035
ASP  OD1  -0.570  0.210  2.960  1.480 -0.005
ASP  OD2  -0.570  0.210  2.960  1.480 -0.005
ASP  HD    0.000  0.000  0.000  0.000  0.000 #because it's not really there
ASP  C     0.600  0.105  3.750  1.875  0.035
ASP  O    -0.550  0.210  2.960  1.480  0.008
ASP  OXT  -0.550  0.210  2.960  1.480 -0.005
CYS  N    -0.400  0.170  3.250  1.625  0.008
CYS  H     0.250  0.000  0.000  1.200  0.000
CYS  CA    0.100  0.080  3.800  1.900  0.035
CYS  CB    0.000  0.118  3.905  1.952  0.035
CYS  SG   -0.190  0.250  3.550  1.775  0.043
CYS  HG    0.190  0.000  0.000  1.200  0.000
CYS  C     0.600  0.105  3.750  1.875  0.035
CYS  O    -0.550  0.210  2.960  1.480  0.008
CYS  OXT  -0.550  0.210  2.960  1.480 -0.005
CSS  N    -0.400  0.170  3.250  1.625  0.008
CSS  H     0.250  0.000  0.000  1.200  0.000
CSS  CA    0.100  0.080  3.800  1.900  0.035
CSS  CB    0.190  0.118  3.905  1.952  0.035
CSS  SG   -0.190  0.250  3.550  1.775  0.043
CSS  C     0.600  0.105  3.750  1.875  0.035
CSS  O    -0.550  0.210  2.960  1.480  0.008
GLN  N    -0.400  0.170  3.250  1.625  0.008
GLN  H     0.250  0.000  0.000  1.200  0.000
GLN  CA    0.100  0.080  3.800  1.900  0.035
GLN  CB    0.000  0.118  3.905  1.952  0.035
GLN  CG    0.000  0.118  3.905  1.952  0.035
GLN  CD    0.550  0.105  3.750  1.875  0.035
GLN  OE1  -0.550  0.210  2.960  1.480 -0.005
GLN  NE2  -0.600  0.170  3.250  1.625  0.008
GLN  HE21  0.300  0.000  0.000  1.200  0.000
GLN  HE22  0.300  0.000  0.000  1.200  0.000
GLN  C     0.600  0.105  3.750  1.875  0.035
GLN  O    -0.550  0.210  2.960  1.480  0.008
GLN  OXT  -0.550  0.210  2.960  1.480 -0.005
GLU  N    -0.400  0.170  3.250  1.625  0.008
GLU  H     0.250  0.000  0.000  1.200  0.000
GLU  CA    0.100  0.800  3.800  1.900  0.035
GLU  CB    0.000  0.118  3.905  1.952  0.035
GLU  CG    0.000  0.118  3.905  1.952  0.035
GLU  CD    0.140  0.105  3.750  1.675  0.035
GLU  OE1  -0.570  0.210  2.960  1.480 -0.005
GLU  OE2  -0.570  0.210  2.960  1.480 -0.005
GLU  HE    0.000  0.000  0.000  0.000  0.000 #because it's not really there
GLU  C     0.600  0.105  3.750  1.875  0.035
GLU  O    -0.550  0.210  2.960  1.480  0.008
GLU  OXT  -0.550  0.210  2.960  1.480 -0.005
GLY  N    -0.400  0.170  3.250  1.625  0.008
GLY  H     0.250  0.000  0.000  1.200  0.000
GLY  CA    0.100  0.118  3.800  1.900  0.035
GLY  C     0.600  0.105  3.750  1.875  0.035
GLY  O    -0.550  0.210  2.960  1.480  0.008
GLY  OXT  -0.550  0.210  2.960  1.480 -0.005
HIS  N    -0.400  0.170  3.250  1.625  0.008
HIS  H     0.250  0.000  0.000  1.200  0.000
HIS  CA    0.100  0.080  3.800  1.900  0.035
HIS  CB    0.000  0.118  3.905  1.952  0.035
HIS  CG    0.100  0.145  3.750  1.875  0.035
HIS  ND1  -0.400  0.170  3.250  1.625  0.008
HIS  HD1   0.300  0.000  0.000  1.200  0.000
HIS  CE1   0.300  0.145  3.750  1.875  0.035
HIS  NE2  -0.400  0.170  3.250  1.625  0.008
HIS  HE2   0.000  0.000  0.000  0.000  0.000 #because it's not really there
HIS  CD2   0.100  0.145  3.750  1.875  0.035
HIS  C     0.600  0.105  3.750  1.875  0.035
HIS  O    -0.550  0.210  2.960  1.480  0.008
HIS  OXT  -0.550  0.210  2.960  1.480 -0.005 #as above.  JL 5/28/96
ILE  N    -0.400  0.170  3.250  1.625  0.008
ILE  H     0.250  0.000  0.000  1.200  0.000
ILE  CA    0.100  0.080  3.800  1.900  0.035
ILE  CB    0.000  0.080  3.850  1.925  0.035
ILE  CG1   0.000  0.118  3.905  1.952  0.035
ILE  CG2   0.000  0.160  3.910  1.955  0.035
ILE  CD1   0.000  0.175  3.905  1.952  0.035
ILE  C     0.600  0.105  3.750  1.875  0.035
ILE  O    -0.550  0.210  2.960  1.480  0.008
ILE  OXT  -0.550  0.210  2.960  1.480 -0.005
LEU  N    -0.400  0.170  3.250  1.625  0.008
LEU  H     0.250  0.000  0.000  1.200  0.000
LEU  CA    0.100  0.080  3.800  1.900  0.035
LEU  CB    0.000  0.118  3.905  1.952  0.035
LEU  CG    0.000  0.080  3.850  1.925  0.035
LEU  CD1   0.000  0.160  3.910  1.955  0.035
LEU  CD2   0.000  0.160  3.910  1.955  0.035
LEU  C     0.600  0.105  3.750  1.875  0.035
LEU  O    -0.550  0.210  2.960  1.480  0.008
LEU  OXT  -0.550  0.210  2.960  1.480 -0.005
LYS  N    -0.400  0.170  3.250  1.625  0.008
LYS  H     0.250  0.000  0.000  1.200  0.000
LYS  CA    0.100  0.800  3.800  1.900  0.035
LYS  CB    0.000  0.118  3.905  1.952  0.035
LYS  CG    0.000  0.118  3.905  1.952  0.035
LYS  CD    0.000  0.118  3.905  1.952  0.035
LYS  CE    0.250  0.118  3.905  1.952  0.035
LYS  NZ   -0.300  0.170  3.250  1.625 -0.046
LYS  HZ1   0.350  0.000  0.000  1.200  0.000
LYS  HZ2   0.350  0.000  0.000  1.200  0.000
LYS  HZ3   0.350  0.000  0.000  1.200  0.000
LYS  1HZ   0.350  0.000  0.000  1.200  0.000 #same as 1HZ etc
LYS  2HZ   0.350  0.000  0.000  1.200  0.000
LYS  3HZ   0.350  0.000  0.000  1.200  0.000
LYS  C     0.600  0.105  3.750  1.875  0.035
LYS  O    -0.550  0.210  2.960  1.480  0.008
LYS  OXT  -0.550  0.210  2.960  1.480 -0.005
MET  N    -0.400  0.170  3.250  1.625  0.008
MET  H     0.250  0.000  0.000  1.200  0.000
MET  CA    0.100  0.080  3.800  1.900  0.035
MET  CB    0.000  0.118  3.905  1.952  0.035
MET  CG    0.060  0.118  3.800  1.900  0.035
MET  SD   -0.120  0.250  3.550  1.775  0.044
MET  CE    0.060  0.170  3.800  1.900  0.035
MET  C     0.600  0.105  3.750  1.875  0.035
MET  O    -0.550  0.210  2.960  1.480  0.008
MET  OXT  -0.550  0.210  2.960  1.480 -0.005
PHE  N    -0.400  0.170  3.250  1.625  0.008
PHE  H     0.250  0.000  0.000  1.200  0.000
PHE  CA    0.100  0.080  3.800  1.900  0.035
PHE  CB    0.000  0.118  3.905  1.952  0.035
PHE  CG    0.000  0.110  3.750  1.875  0.035
PHE  CD1   0.000  0.110  3.750  1.875  0.035
PHE  CD2   0.000  0.110  3.750  1.875  0.035
PHE  CE1   0.000  0.110  3.750  1.875  0.035
PHE  CE2   0.000  0.110  3.750  1.875  0.035
PHE  CZ    0.000  0.110  3.750  1.875  0.035
PHE  C     0.600  0.105  3.750  1.875  0.035
PHE  O    -0.550  0.210  2.960  1.480  0.008
PHE  OXT  -0.550  0.210  2.960  1.480 -0.005
PRO  N    -0.250  0.170  3.250  1.625  0.008
PRO  CD    0.100  0.118  3.800  1.900  0.035
PRO  CA    0.100  0.080  3.800  1.900  0.035
PRO  CB    0.000  0.118  3.905  1.952  0.035
PRO  CG    0.000  0.118  3.905  1.952  0.035
PRO  C     0.600  0.105  3.750  1.875  0.035
PRO  O    -0.550  0.210  2.960  1.480  0.008
PRO  OXT  -0.550  0.210  2.960  1.480 -0.005
SER  N    -0.400  0.170  3.250  1.625  0.008
SER  H     0.250  0.000  0.000  1.200  0.000
SER  CA    0.100  0.080  3.800  1.900  0.035
SER  CB    0.250  0.118  3.905  1.952  0.035
SER  OG   -0.650  0.170  3.070  1.535  0.008
SER  HG    0.400  0.000  0.000  1.200  0.000
SER  C     0.600  0.105  3.750  1.875  0.035
SER  O    -0.550  0.210  2.960  1.480  0.008
SER  OXT  -0.550  0.210  2.960  1.480 -0.005
THR  N    -0.400  0.170  3.250  1.625  0.008
THR  H     0.250  0.000  0.000  1.200  0.000
THR  CA    0.100  0.080  3.800  1.900  0.035
THR  CB    0.250  0.080  3.850  1.925  0.035
THR  CG2   0.000  0.160  3.910  1.955  0.035
THR  OG1  -0.650  0.170  3.070  1.535  0.008
THR  HG1   0.400  0.000  0.000  1.200  0.000
THR  C     0.600  0.105  3.750  1.875  0.035
THR  O    -0.550  0.210  2.960  1.480  0.008
THR  OXT  -0.550  0.210  2.960  1.480 -0.005
TRP  N    -0.400  0.170  3.250  1.625  0.008
TRP  H     0.250  0.000  0.000  1.200  0.000
TRP  CA    0.100  0.080  3.800  1.900  0.035
TRP  CB    0.000  0.118  3.905  1.952  0.035
TRP  CG   -0.030  0.145  3.750  1.875  0.035
TRP  CD1   0.060  0.145  3.750  1.875  0.035
TRP  NE1  -0.360  0.170  3.250  1.625  0.008
TRP  HE1   0.300  0.000  0.000  1.200  0.000
TRP  CE2  -0.040  0.145  3.750  1.875  0.035
TRP  CZ2   0.000  0.110  3.750  1.875  0.035
TRP  CH2   0.000  0.110  3.750  1.875  0.035
TRP  CZ3   0.000  0.110  3.750  1.875  0.035
TRP  CE3  -0.030  0.110  3.750  1.875  0.035
TRP  CD2   0.100  0.145  3.750  1.875  0.035
TRP  C     0.600  0.105  3.750  1.875  0.035
TRP  O    -0.550  0.210  2.960  1.480  0.008
TRP  CT2   0.600  0.105  3.750  1.875  0.035
TRP  CNT  -0.050  0.080  3.800  1.900  0.035
TRP  ONT  -0.550  0.210  2.960  1.480  0.008
TRP  OXT  -0.550  0.210  2.960  1.480 -0.005
TYR  N    -0.400  0.170  3.250  1.625  0.008
TYR  H     0.250  0.000  0.000  1.200  0.000
TYR  CA    0.100  0.080  3.800  1.900  0.035
TYR  CB    0.000  0.118  3.905  1.952  0.035
TYR  CG    0.000  0.110  3.750  1.875  0.035
TYR  CD1   0.000  0.110  3.750  1.875  0.035
TYR  CE1   0.000  0.110  3.750  1.875  0.035
TYR  CZ    0.250  0.110  3.750  1.875  0.035
TYR  OH   -0.650  0.170  3.070  1.535  0.008
TYR  HH    0.400  0.000  0.000  1.200  0.000
TYR  CE2   0.000  0.110  3.750  1.875  0.035
TYR  CD2   0.000  0.110  3.750  1.875  0.035
TYR  C     0.600  0.105  3.750  1.875  0.035
TYR  O    -0.550  0.210  2.960  1.480  0.008
TYR  OXT  -0.550  0.210  2.960  1.480 -0.005
VAL  N    -0.400  0.170  3.250  1.625  0.008
VAL  H     0.250  0.000  0.000  1.200  0.000
VAL  CA    0.100  0.080  3.800  1.900  0.035
VAL  CB    0.000  0.080  3.850  1.925  0.035
VAL  CG1   0.000  0.160  3.910  1.955  0.035
VAL  CG2   0.000  0.160  3.910  1.955  0.035
VAL  C     0.600  0.105  3.750  1.875  0.035
VAL  O    -0.550  0.210  2.960  1.480  0.008
VAL  OXT  -0.550  0.210  2.960  1.480 -0.005
HOH  O    -0.834  0.152  3.151  1.575  0.000
HOH  H1    0.417  0.000  0.000  1.200  0.000
HOH  H2    0.417  0.000  0.000  1.200  0.000
HOH  1HO   0.417  0.000  0.000  1.200  0.000
HOH  2HO   0.417  0.000  0.000  1.200  0.000
CO   C     0.021  0.118  4.980  2.490  0.035
CO   O    -0.021  0.210  3.080  1.540  0.008
O2   O1   -0.000  0.210  3.080  1.540  0.008
O2   O2    0.000  0.210  3.080  1.540  0.008
TERN N    -0.320  0.170  3.250  1.625 -0.046
TERN HT1   0.330  0.000  0.000  1.200  0.000
TERN HT2   0.330  0.000  0.000  1.200  0.000
TERN HT3   0.330  0.000  0.000  1.200  0.000
ASP  1H    0.330  0.000  0.000  1.200  0.000 #same as TERN HT1, etc.
ASP  2H    0.330  0.000  0.000  1.200  0.000
ASP  3H    0.330  0.000  0.000  1.200  0.000
GLN  1H    0.330  0.000  0.000  1.200  0.000 #same as TERN HT1, etc.
GLN  2H    0.330  0.000  0.000  1.200  0.000
GLN  3H    0.330  0.000  0.000  1.200  0.000
LYS  1H    0.330  0.000  0.000  1.200  0.000 #same as TERN HT1, etc.
LYS  2H    0.330  0.000  0.000  1.200  0.000
LYS  3H    0.330  0.000  0.000  1.200  0.000
TERN CA    0.330  0.080  3.800  1.900  0.035
TERC C     0.190  0.105  3.750  1.875  0.035 #old charge 1.4
TERC CA    0.100  0.080  3.800  1.900  0.035
TERC O    -0.570  0.210  2.960  1.480  0.008
TERC OXT  -0.570  0.210  2.960  1.480 -0.005
TERC OCT1 -0.570  0.210  2.960  1.480 -0.005
TERC OCT2 -0.570  0.210  2.960  1.480 -0.005
TERC HXT   0.000  0.000  0.000  0.000  0.000 #  because it's not really there
